/home/waniccoll/Projects/springrest-book/Chapter5/final/quick-poll-ch5-final/src/main/java/com/apress/dto/OptionCount.java
/home/waniccoll/Projects/springrest-book/Chapter5/final/quick-poll-ch5-final/src/main/java/com/apress/controller/VoteController.java
/home/waniccoll/Projects/springrest-book/Chapter5/final/quick-poll-ch5-final/src/main/java/com/apress/domain/Vote.java
/home/waniccoll/Projects/springrest-book/Chapter5/final/quick-poll-ch5-final/src/main/java/com/apress/repository/OptionRepository.java
/home/waniccoll/Projects/springrest-book/Chapter5/final/quick-poll-ch5-final/src/main/java/com/apress/controller/PollController.java
/home/waniccoll/Projects/springrest-book/Chapter5/final/quick-poll-ch5-final/src/main/java/com/apress/domain/Poll.java
/home/waniccoll/Projects/springrest-book/Chapter5/final/quick-poll-ch5-final/src/main/java/com/apress/dto/error/ValidationError.java
/home/waniccoll/Projects/springrest-book/Chapter5/final/quick-poll-ch5-final/src/main/java/com/apress/dto/error/ErrorDetail.java
/home/waniccoll/Projects/springrest-book/Chapter5/final/quick-poll-ch5-final/src/main/java/com/apress/controller/ComputeResultController.java
/home/waniccoll/Projects/springrest-book/Chapter5/final/quick-poll-ch5-final/src/main/java/com/apress/exception/ResourceNotFoundException.java
/home/waniccoll/Projects/springrest-book/Chapter5/final/quick-poll-ch5-final/src/main/java/com/apress/dto/VoteResult.java
/home/waniccoll/Projects/springrest-book/Chapter5/final/quick-poll-ch5-final/src/main/java/com/apress/handler/RestExceptionHandler.java
/home/waniccoll/Projects/springrest-book/Chapter5/final/quick-poll-ch5-final/src/main/java/com/apress/domain/Option.java
/home/waniccoll/Projects/springrest-book/Chapter5/final/quick-poll-ch5-final/src/main/java/com/apress/QuickPollApplication.java
/home/waniccoll/Projects/springrest-book/Chapter5/final/quick-poll-ch5-final/src/main/java/com/apress/repository/PollRepository.java
/home/waniccoll/Projects/springrest-book/Chapter5/final/quick-poll-ch5-final/src/main/java/com/apress/repository/VoteRepository.java
